…
```
## See spec(...) for full column specifications.
```

```r
fuel
```

```
## # A tibble: 38,113 x 81
##    vehicle_id  year make  model class drive transmission transmission_ty~
##         <dbl> <dbl> <chr> <chr> <chr> <chr> <chr>        <chr>           
##  1      26587  1984 Alfa~ GT V~ Mini~ <NA>  Manual 5-Sp~ <NA>            
##  2      27705  1984 Alfa~ GT V~ Mini~ <NA>  Manual 5-Sp~ <NA>            
##  3      26561  1984 Alfa~ Spid~ Two ~ <NA>  Manual 5-Sp~ <NA>            
##  4      27681  1984 Alfa~ Spid~ Two ~ <NA>  Manual 5-Sp~ <NA>            
##  5      27550  1984 AM G~ DJ P~ Spec~ 2-Wh~ Automatic 3~ <NA>            
##  6      28426  1984 AM G~ DJ P~ Spec~ 2-Wh~ Automatic 3~ <NA>            
##  7      27549  1984 AM G~ FJ8c~ Spec~ 2-Wh~ Automatic 3~ <NA>            
##  8      28425  1984 AM G~ FJ8c~ Spec~ 2-Wh~ Automatic 3~ <NA>            
##  9      27593  1984 Amer~ Eagl~ Spec~ 4-Wh~ Automatic 3~ <NA>            
## 10      28455  1984 Amer~ Eagl~ Spec~ 4-Wh~ Automatic 3~ <NA>            
## # ... with 38,103 more rows, and 73 more variables: engine_index <dbl>,
## #   engine_descriptor <chr>, engine_cylinders <dbl>, engine_displacement <dbl>,
## #   turbocharger <lgl>, supercharger <lgl>, fuel_type <chr>, fuel_type_1 <chr>,
## #   fuel_type_2 <lgl>, city_mpg_ft1 <dbl>, unrounded_city_mpg_ft1 <dbl>,
## #   city_mpg_ft2 <dbl>, unrounded_city_mpg_ft2 <dbl>,
## #   city_gasoline_consumption_cd <dbl>, city_electricity_consumption <dbl>,
## #   city_utility_factor <dbl>, highway_mpg_ft1 <dbl>,
## #   unrounded_highway_mpg_ft1 <dbl>, highway_mpg_ft2 <dbl>,
## #   unrounded_highway_mpg_ft2 <dbl>, highway_gasoline_consumption_cd <dbl>,
…
```r
fuelAnnual$CostCount <- CostVec
```

```r
fuelAnnual
```

```
## # A tibble: 60 x 4
##    annual_fuel_cost_ft1     n PriceBracket CostCount
##                   <dbl> <int>        <int>     <dbl>
##  1                  500     1            1       500
##  2                  550    18            2      9900
##  3                  600    34            3     20400
##  4                  650    25            4     16250
##  5                  700    29            5     20300
##  6                  750    51            6     38250
##  7                  800    20            7     16000
##  8                  850   135            8    114750
##  9                  900    50            9     45000
## 10                  950    70           10     66500
## # ... with 50 more rows
```
…
